<?xml version="1.0" encoding="UTF-8"?>
<svg enable-background="new 0 0 426.667 426.667" version="1.1" viewBox="0 0 426.667 426.667" xml:space="preserve" xmlns="http://www.w3.org/2000/svg">
			<path d="M362.667,42.667h-21.333V0h-42.667v42.667H128V0H85.333v42.667H64c-23.573,0-42.453,19.093-42.453,42.667L21.333,384     c0,23.573,19.093,42.667,42.667,42.667h298.667c23.573,0,42.667-19.093,42.667-42.667V85.333     C405.333,61.76,386.24,42.667,362.667,42.667z M362.667,384H64V149.333h298.667V384z"/>
			<polygon points="309.97 214.61 287.36 192 183.25 296.11 138.03 250.88 115.41 273.49 183.25 341.33"/>
</svg>
